-10.0 -1.0176221474648905
-9.98 -1.0166772342776875
-9.96 -1.0157285510453569
-9.94 -1.0147760807058288
-9.92 -1.013819806092218
-9.9 -1.0128597099318757
-9.88 -1.011895774845433
-9.86 -1.0109279833458296
-9.84 -1.0099563178373347
-9.82 -1.0089807606145522
-9.8 -1.0080012938614198
-9.78 -1.0070178996501906
-9.76 -1.0060305599404078
-9.74 -1.0050392565778639
-9.72 -1.0040439712935536
-9.7 -1.003044685702603
-9.68 -1.0020413813032005
-9.66 -1.001034039475503
-9.64 -1.0000226414805407
-9.62 -0.9990071684590975
-9.6 -0.9979876014305894
-9.58 -0.9969639212919218
-9.56 -0.9959361088163364
-9.54 -0.9949041446522475
-9.52 -0.9938680093220614
-9.5 -0.9928276832209819
-9.48 -0.9917831466158058
-9.46 -0.9907343796436995
-9.44 -0.9896813623109662
-9.42 -0.9886240744917996
-9.4 -0.9875624959270102
-9.38 -0.9864966062227611
-9.36 -0.9854263848492687
-9.34 -0.984351811139494
-9.32 -0.983272864287825
-9.3 -0.9821895233487371
-9.28 -0.9811017672354425
-9.26 -0.9800095747185229
-9.24 -0.9789129244245427
-9.22 -0.9778117948346583
-9.2 -0.9767061642831946
-9.18 -0.9755960109562216
-9.16 -0.9744813128901064
-9.14 -0.9733620479700471
-9.12 -0.9722381939286002
-9.1 -0.9711097283441816
-9.08 -0.9699766286395529
-9.06 -0.9688388720802977
-9.04 -0.9676964357732718
-9.02 -0.9665492966650393
-9.0 -0.9653974315403007
-8.98 -0.9642408170202831
-8.96 -0.9630794295611366
-8.94 -0.9619132454522952
-8.92 -0.9607422408148285
-8.9 -0.9595663915997723
-8.88 -0.9583856735864449
-8.86 -0.9572000623807382
-8.84 -0.9560095334133984
-8.82 -0.9548140619382831
-8.8 -0.9536136230306008
-8.78 -0.9524081915851313
-8.76 -0.9511977423144294
-8.74 -0.949982249747009
-8.72 -0.9487616882255016
-8.7 -0.9475360319048093
-8.68 -0.9463052547502209
-8.66 -0.9450693305355261
-8.64 -0.9438282328410925
-8.62 -0.942581935051941
-8.6 -0.9413304103557852
-8.58 -0.9400736317410603
-8.56 -0.9388115719949294
-8.54 -0.9375442037012669
-8.52 -0.9362714992386262
-8.5 -0.9349934307781849
-8.48 -0.9337099702816669
-8.46 -0.9324210894992491
-8.44 -0.9311267599674384
-8.42 -0.9298269530069424
-8.4 -0.9285216397205024
-8.38 -0.927210790990717
-8.36 -0.9258943774778418
-8.34 -0.9245723696175647
-8.32 -0.9232447376187634
-8.3 -0.9219114514612402
-8.28 -0.920572480893435
-8.26 -0.9192277954301196
-8.24 -0.9178773643500647
-8.22 -0.9165211566936916
-8.2 -0.9151591412606991
-8.18 -0.9137912866076667
-8.16 -0.9124175610456431
-8.14 -0.9110379326377047
-8.12 -0.9096523691964976
-8.1 -0.9082608382817561
-8.08 -0.9068633071977984
-8.06 -0.9054597429910061
-8.04 -0.9040501124472694
-8.02 -0.9026343820894304
-8.0 -0.9012125181746811
-7.98 -0.8997844866919595
-7.96 -0.8983502533593136
-7.94 -0.8969097836212448
-7.92 -0.8954630426460364
-7.9 -0.8940099953230491
-7.88 -0.8925506062600039
-7.86 -0.8910848397802454
-7.84 -0.8896126599199707
-7.82 -0.8881340304254552
-7.8 -0.8866489147502421
-7.78 -0.8851572760523196
-7.76 -0.8836590771912745
-7.74 -0.8821542807254248
-7.72 -0.8806428489089326
-7.7 -0.8791247436888967
-7.68 -0.8775999267024249
-7.66 -0.8760683592736866
-7.64 -0.8745300024109433
-7.62 -0.8729848168035638
-7.6 -0.8714327628190174
-7.58 -0.869873800499846
-7.56 -0.8683078895606258
-7.54 -0.8667349893848957
-7.52 -0.8651550590220859
-7.5 -0.8635680571844102
-7.48 -0.861973942243757
-7.46 -0.8603726722285491
-7.44 -0.8587642048205983
-7.42 -0.8571484973519349
-7.4 -0.855525506801623
-7.38 -0.8538951897925681
-7.36 -0.8522575025882912
-7.34 -0.8506124010897134
-7.32 -0.8489598408318972
-7.3 -0.847299776980803
-7.28 -0.8456321643300078
-7.26 -0.8439569572974246
-7.24 -0.8422741099220081
-7.22 -0.8405835758604421
-7.2 -0.8388853083838242
-7.18 -0.8371792603743343
-7.16 -0.8354653843218951
-7.14 -0.8337436323208218
-7.12 -0.8320139560664654
-7.1 -0.83027630685185
-7.08 -0.8285306355642934
-7.06 -0.826776892682034
-7.04 -0.8250150282708464
-7.02 -0.8232449919806477
-7.0 -0.8214667330421073
-6.98 -0.8196802002632514
-6.96 -0.8178853420260619
-6.94 -0.8160821062830804
-6.92 -0.8142704405540055
-6.9 -0.8124502919222959
-6.88 -0.8106216070317716
-6.86 -0.8087843320832216
-6.84 -0.806938412831012
-6.82 -0.8050837945797026
-6.8 -0.8032204221806654
-6.78 -0.8013482400287151
-6.76 -0.7994671920587477
-6.74 -0.7975772217423827
-6.72 -0.795678272084628
-6.7 -0.7937702856205452
-6.68 -0.7918532044119369
-6.66 -0.7899269700440509
-6.64 -0.7879915236222883
-6.62 -0.7860468057689494
-6.6 -0.784092756619981
-6.58 -0.782129315821757
-6.56 -0.7801564225278805
-6.54 -0.7781740153960037
-6.52 -0.7761820325846819
-6.5 -0.7741804117502538
-6.48 -0.7721690900437491
-6.46 -0.7701480041078298
-6.44 -0.7681170900737669
-6.42 -0.7660762835584508
-6.4 -0.7640255196614376
-6.38 -0.7619647329620405
-6.36 -0.7598938575164574
-6.34 -0.7578128268549458
-6.32 -0.7557215739790426
-6.3 -0.7536200313588316
-6.28 -0.7515081309302634
-6.26 -0.7493858040925272
-6.24 -0.7472529817054796
-6.22 -0.7451095940871256
-6.2 -0.7429555710111668
-6.18 -0.7407908417046101
-6.16 -0.738615334845441
-6.14 -0.7364289785603633
-6.12 -0.7342317004226153
-6.1 -0.7320234274498539
-6.08 -0.7298040861021177
-6.06 -0.7275736022798691
-6.04 -0.7253319013221206
-6.02 -0.7230789080046429
-6.0 -0.7208145465382653
-5.98 -0.7185387405672616
-5.96 -0.716251413167841
-5.94 -0.7139524868467255
-5.92 -0.7116418835398375
-5.9 -0.7093195246110874
-5.88 -0.7069853308512725
-5.86 -0.7046392224770824
-5.84 -0.7022811191302274
-5.82 -0.6999109398766808
-5.8 -0.6975286032060422
-5.78 -0.695134027031034
-5.76 -0.6927271286871213
-5.74 -0.6903078249322714
-5.72 -0.6878760319468443
-5.7 -0.6854316653336382
-5.68 -0.6829746401180643
-5.66 -0.680504870748487
-5.64 -0.6780222710967122
-5.62 -0.675526754458632
-5.6 -0.6730182335550403
-5.58 -0.6704966205326117
-5.56 -0.6679618269650496
-5.54 -0.6654137638544197
-5.52 -0.6628523416326568
-5.5 -0.6602774701632649
-5.48 -0.6576890587432013
-5.46 -0.6550870161049619
-5.44 -0.6524712504188669
-5.42 -0.6498416692955502
-5.4 -0.6471981797886588
-5.38 -0.6445406883977731
-5.36 -0.6418691010715423
-5.34 -0.6391833232110505
-5.32 -0.6364832596734118
-5.3 -0.6337688147756051
-5.28 -0.6310398922985466
-5.26 -0.6282963954914166
-5.24 -0.625538227076233
-5.22 -0.6227652892526899
-5.2 -0.6199774837032549
-5.18 -0.6171747115985442
-5.16 -0.6143568736029631
-5.14 -0.6115238698806407
-5.12 -0.6086756001016443
-5.1 -0.6058119634484878
-5.08 -0.6029328586229437
-5.06 -0.600038183853159
-5.04 -0.597127836901083
-5.02 -0.5942017150702097
-5.0 -0.591259715213651
-4.98 -0.5883017337425354
-4.96 -0.5853276666347424
-4.94 -0.5823374094439854
-4.92 -0.579330857309237
-4.9 -0.5763079049645135
-4.88 -0.5732684467490228
-4.86 -0.5702123766176767
-4.84 -0.5671395881519784
-4.82 -0.564049974571298
-4.8 -0.5609434287445236
-4.78 -0.55781984320212
-4.76 -0.5546791101485783
-4.74 -0.5515211214752771
-4.72 -0.548345768773757
-4.7 -0.5451529433494182
-4.68 -0.5419425362356395
-4.66 -0.5387144382083365
-4.64 -0.5354685398009581
-4.62 -0.5322047313199287
-4.6 -0.5289229028605469
-4.58 -0.5256229443233398
-4.56 -0.5223047454308934
-4.54 -0.5189681957451404
-4.52 -0.5156131846851454
-4.5 -0.5122396015453636
-4.48 -0.5088473355143963
-4.46 -0.5054362756942521
-4.44 -0.5020063111200992
-4.42 -0.49855733078054454
-4.4 -0.49508922363842356
-4.38 -0.4916018786521138
-4.36 -0.4880951847973858
-4.34 -0.48456903108978194
-4.32 -0.4810233066075468
-4.3 -0.4774579005151016
-4.28 -0.47387270208707866
-4.26 -0.4702676007329052
-4.24 -0.46664248602197156
-4.22 -0.46299724770935863
-4.2 -0.45933177576214407
-4.18 -0.45564596038630323
-4.16 -0.4519396920541832
-4.14 -0.4482128615325848
-4.12 -0.4444653599114363
-4.1 -0.4406970786330747
-4.08 -0.43690790952213454
-4.06 -0.43309774481605456
-4.04 -0.42926647719619904
-4.02 -0.4254139998196035
-4.0 -0.4215402063513535
-3.98 -0.41764499099758445
-3.96 -0.4137282485391278
-3.94 -0.40978987436579173
-3.92 -0.4058297645112854
-3.9 -0.4018478156887916
-3.88 -0.3978439253271854
-3.86 -0.3938179916079123
-3.84 -0.3897699135025138
-3.82 -0.385699590810819
-3.8 -0.3816069241997919
-3.78 -0.37749181524303954
-3.76 -0.3733541664609923
-3.74 -0.3691938813617396
-3.72 -0.365010864482542
-3.7 -0.36080502143200455
-3.68 -0.35657625893292344
-3.66 -0.35232448486579715
-3.64 -0.34804960831300824
-3.62 -0.3437515396036781
-3.6 -0.3394301903591813
-3.58 -0.3350854735393333
-3.56 -0.3307173034892411
-3.54 -0.3263255959868145
-3.52 -0.32191026829094793
-3.5 -0.3174712391903466
-3.48 -0.31300842905302395
-3.46 -0.3085217598764369
-3.44 -0.3040111553382807
-3.42 -0.2994765408479199
-3.4 -0.29491784359845796
-3.38 -0.29033499261944895
-3.36 -0.28572791883022297
-3.34 -0.28109655509384257
-3.32 -0.2764408362716698
-3.3 -0.27176069927853463
-3.28 -0.2670560831385094
-3.26 -0.26232692904126187
-3.24 -0.25757318039899824
-3.22 -0.25279478290396273
-3.2 -0.24799168458650647
-3.18 -0.24316383587369617
-3.16 -0.23831118964845704
-3.14 -0.2334337013092383
-3.12 -0.22853132883018687
-3.1 -0.22360403282180816
-3.08 -0.21865177659210996
-3.06 -0.21367452620820324
-3.04 -0.20867225055834632
-3.02 -0.2036449214144159
-3.0 -0.198592513494783
-2.98 -0.19351500452757509
-2.96 -0.18841237531430644
-2.94 -0.18328460979384747
-2.92 -0.17813169510671775
-2.9 -0.17295362165967357
-2.88 -0.16775038319057042
-2.86 -0.16252197683346775
-2.84 -0.15726840318395055
-2.82 -0.15198966636464503
-2.8 -0.14668577409089348
-2.78 -0.1413567377365513
-2.76 -0.13600257239989275
-2.74 -0.13062329696957076
-2.72 -0.1252189341906114
-2.7 -0.11978951073039859
-2.68 -0.11433505724462034
-2.66 -0.10885560844312406
-2.64 -0.1033512031556569
-2.62 -0.09782188439744041
-2.6 -0.09226769943453503
-2.58 -0.08668869984896305
-2.56 -0.08108494160352392
-2.54 -0.07545648510627606
-2.52 -0.06980339527462054
-2.5 -0.06412574159894721
-2.48 -0.058423598205787214
-2.46 -0.0526970439204148
-2.44 -0.04694616232885507
-2.42 -0.04117104183923015
-2.4 -0.035371775742392336
-2.38 -0.029548462271786563
-2.36 -0.023701204662476216
-2.34 -0.017830111209273025
-2.32 -0.011935295323911327
-2.3 -0.006016875591194765
-2.28 -7.497582405641134E-5
-2.26 0.005890274882545898
-2.24 0.011878742098949846
-2.22 0.017890286009419998
-2.2 0.023924761362137476
-2.18 0.029982017420636803
-2.16 0.036061897916759594
-2.14 0.042164241005197
-2.12 0.04828887921970523
-2.1 0.05443563943106175
-2.08 0.06060434280684979
-2.06 0.06679480477314498
-2.04 0.07300683497818605
-2.02 0.07924023725811093
-2.0 0.08549480960484195
-1.98 0.09177034413619456
-1.96 0.09806662706830388
-1.94 0.10438343869044088
-1.92 0.11072055334231139
-1.9 0.11707773939391253
-1.88 0.12345475922803542
-1.86 0.1298513692254975
-1.84 0.136267319753185
-1.82 0.1427023551549862
-1.8 0.1491562137457068
-1.78 0.15562862780803893
-1.76 0.1621193235926653
-1.74 0.1686280213215871
-1.72 0.17515443519474222
-1.7 0.1816982733999996
-1.68 0.18825923812659812
-1.66 0.1948370255821109
-1.64 0.20143132601300073
-1.62 0.20804182372884256
-1.6 0.21466819713027008
-1.58 0.2213101187407284
-1.56 0.22796725524207528
-1.54 0.23463926751410752
-1.52 0.24132581067806008
-1.5 0.24802653414413356
-1.48 0.25474108166309717
-1.46 0.26146909138202235
-1.44 0.26821019590417733
-1.42 0.2749640223531311
-1.4 0.28173019244109654
-1.38 0.2885083225415414
-1.36 0.29529802376609937
-1.34 0.3020989020457951
-1.32 0.30891055821659824
-1.3 0.3157325881093256
-1.28 0.3225645826438892
-1.26 0.3294061279278925
-1.24 0.3362568053595712
-1.22 0.34311619173506536
-1.2 0.34998385936000587
-1.18 0.35685937616539665
-1.16 0.36374230582775713
-1.14 0.3706322078934947
-1.12 0.37752863790746727
-1.1 0.3844311475456822
-1.08 0.3913392847520839
-1.06 0.3982525938793693
-1.04 0.4051706158337589
-1.02 0.4120928882236594
-1.0 0.419018945512129
-0.98 0.4259483191730675
-0.96 0.43288053785103187
-0.94 0.43981512752458435
-0.92 0.446751611673063
-0.9 0.45368951144666747
-0.88 0.460628345839737
-0.86 0.4675676318671025
-0.84 0.47450688474338143
-0.82 0.48144561806507347
-0.8 0.48838334399532923
-0.78 0.4953195734512269
-0.76 0.5022538162934251
-0.74 0.5091855815180149
-0.72 0.5161143774504238
-0.7 0.5230397119411949
-0.68 0.5299610925634763
-0.66 0.5368780268120401
-0.64 0.5437900223036527
-0.62 0.5506965869786147
-0.6 0.557597229303283
-0.58 0.5644914584733819
-0.56 0.5713787846179135
-0.54 0.5782587190034747
-0.52 0.5851307742387759
-0.5 0.591994464479172
-0.48 0.5988493056309947
-0.46 0.6056948155554948
-0.44 0.612530514272183
-0.42 0.619355924161375
-0.4 0.6261705701657323
-0.38 0.6329739799905939
-0.36 0.6397656843029097
-0.34 0.6465452169285615
-0.32 0.6533121150478769
-0.3 0.6600659193891456
-0.28 0.6668061744199328
-0.26 0.6735324285360031
-0.24 0.6802442342476684
-0.22 0.6869411483633651
-0.2 0.693622732170283
-0.18 0.7002885516118715
-0.16 0.7069381774620398
-0.14 0.713571185495888
-0.12 0.7201871566567998
-0.1 0.7267856772197431
-0.08 0.7333663389506155
-0.06 0.7399287392614959
-0.04 0.7464724813616497
-0.02 0.7529971744041593
0.0 0.7595024336280458
0.02 0.7659878804957614
0.04 0.7724531428259263
0.06 0.7788978549212195
0.08 0.7853216576912997
0.1 0.7917241987706762
0.12 0.7981051326314332
0.14 0.8044641206907358
0.16 0.8108008314130337
0.18 0.8171149404069054
0.2 0.8234061305164887
0.22 0.8296740919074341
0.24 0.8359185221473545
0.26 0.8421391262807263
0.28 0.8483356168982206
0.3 0.854507714200445
0.32 0.8606551460560821
0.34 0.866777648054424
0.36 0.872874963552305
0.38 0.8789468437154433
0.4 0.884993047554213
0.42 0.8910133419538661
0.44 0.897007501699242
0.46 0.9029753094940042
0.48 0.9089165559744414
0.5 0.9148310397179004
0.52 0.9207185672458928
0.54 0.9265789530219533
0.56 0.9324120194443118
0.58 0.9382175968334604
0.6 0.9439955234146915
0.62 0.949745645295703
0.64 0.95546781643935
0.66 0.9611618986316477
0.68 0.966827761445127
0.7 0.9724652821976398
0.72 0.9780743459067323
0.74 0.9836548452396909
0.76 0.9892066804593839
0.78 0.9947297593660096
0.8 1.0002239972348832
0.82 1.0056893167503742
0.84 1.011125647936137
0.86 1.0165329280817468
0.88 1.0219111016658842
0.9 1.0272601202761993
0.92 1.0325799425259778
0.94 1.0378705339677636
0.96 1.0431318670040528
0.98 1.0483639207952122
1.0 1.0535666811647495
1.02 1.058740140502072
1.04 1.06388429766288
1.06 1.0689991578673164
1.08 1.0740847325960257
1.1 1.079141039484239
1.12 1.0841681022140355
1.14 1.08916595040491
1.16 1.0941346195027684
1.18 1.0990741506674933
1.2 1.1039845906592094
1.22 1.108865991723365
1.24 1.113718411474766
1.26 1.118541912780683
1.28 1.1233365636431472
1.3 1.128102437080567
1.32 1.1328396110087648
1.34 1.137548168121566
1.36 1.1422281957710372
1.38 1.1468797858474955
1.4 1.1515030346593835
1.42 1.1560980428131238
1.44 1.1606649150930435
1.46 1.1652037603414787
1.48 1.1697146913391419
1.5 1.1741978246858535
1.52 1.1786532806817207
1.54 1.1830811832088473
1.56 1.1874816596136675
1.58 1.1918548405899727
1.6 1.1962008600627116
1.62 1.2005198550726373
1.64 1.2048119656618703
1.66 1.2090773347604462
1.68 1.2133161080739119
1.7 1.2175284339720265
1.72 1.2217144633786328
1.74 1.225874349662747
1.76 1.2300082485309245
1.78 1.2341163179209418
1.8 1.2381987178968519
1.82 1.2422556105454479
1.84 1.2462871598741754
1.86 1.2502935317105377
1.88 1.2542748936030172
1.9 1.2582314147235614
1.92 1.2621632657716393
1.94 1.2660706188799238
1.96 1.2699536475215971
1.98 1.2738125264193199
2.0 1.277647431455874
2.02 1.2814585395865004
2.04 1.285246028752942
2.06 1.2890100777992135
2.08 1.2927508663890952
2.1 1.2964685749253735
2.12 1.3001633844708234
2.14 1.303835476670944
2.16 1.3074850336784458
2.18 1.3111122380794984
2.2 1.3147172728217202
2.22 1.318300321143935
2.24 1.321861566507662
2.26 1.3254011925303564
2.28 1.3289193829203807
2.3 1.332416321413704
2.32 1.3358921917123185
2.34 1.3393471774243608
2.36 1.3427814620059264
2.38 1.346195228704565
2.4 1.3495886605044463
2.42 1.352961940073166
2.44 1.3563152497102005
2.46 1.3596487712969645
2.48 1.3629626862484794
2.5 1.366257175466615
2.52 1.3695324192948959
2.54 1.3727885974748462
2.56 1.3760258891038566
2.58 1.379244472594546
2.6 1.382444525635606
2.62 1.3856262251540916
2.64 1.3887897472791515
2.66 1.3919352673071579
2.68 1.3950629596682274
2.7 1.3981729978941002
2.72 1.401265554587353
2.74 1.404340801391928
2.76 1.407398908964947
2.78 1.4104400469497862
2.8 1.4134643839503904
2.82 1.4164720875068024
2.84 1.4194633240718735
2.86 1.4224382589891416
2.88 1.4253970564718421
2.9 1.428339879583038
2.92 1.4312668902168264
2.94 1.4341782490806154
2.96 1.4370741156784363
2.98 1.4399546482952654
3.0 1.442820003982335
3.02 1.445670338543407
3.04 1.4485058065219882
3.06 1.4513265611894544
3.08 1.4541327545340696
3.1 1.4569245372508701
3.12 1.4597020587323941
3.14 1.462465467060228
3.16 1.4652149089973516
3.18 1.4679505299812596
3.2 1.4706724741178323
3.22 1.4733808841759362
3.24 1.4760759015827345
3.26 1.4787576664196835
3.28 1.4814263174191915
3.3 1.4840819919619292
3.32 1.4867248260747528
3.34 1.4893549544292413
3.36 1.4919725103408124
3.38 1.4945776257684034
3.4 1.4971704313146945
3.42 1.4997510562268639
3.44 1.502319628397848
3.46 1.504876274368084
3.48 1.5074211193277387
3.5 1.509954287119379
3.52 1.5124759002410844
3.54 1.51498607984998
3.56 1.5174849457661725
3.58 1.5199726164770786
3.6 1.5224492091421151
3.62 1.5249148395977616
3.64 1.5273696223629516
3.66 1.5298136706447991
3.68 1.5322470963446355
3.7 1.5346700100643471
3.72 1.5370825211130006
3.74 1.539484737513732
3.76 1.5418767660109116
3.78 1.544258712077538
3.8 1.5466306799228824
3.82 1.548992772500346
3.84 1.5513450915155358
3.86 1.5536877374345297
3.88 1.5560208094923487
3.9 1.5583444057015896
3.92 1.5606586228612371
3.94 1.5629635565656295
3.96 1.565259301213575
3.98 1.5675459500176046
4.0 1.5698235950133574
4.02 1.5720923270690854
4.04 1.5743522358952697
4.06 1.5766034100543398
4.08 1.5788459369704941
4.1 1.5810799029396025
4.12 1.5833053931391887
4.14 1.5855224916384894
4.16 1.587731281408579
4.18 1.5899318443325499
4.2 1.5921242612157465
4.22 1.5943086117960465
4.24 1.5964849747541816
4.26 1.5986534277240882
4.28 1.600814047303293
4.3 1.6029669090633127
4.32 1.6051120875600788
4.34 1.607249656344367
4.36 1.6093796879722408
4.38 1.6115022540154895
4.4 1.613617425072071
4.42 1.6157252707765428
4.44 1.6178258598104855
4.46 1.6199192599129066
4.48 1.622005537890633
4.5 1.624084759628669
4.52 1.626156990100543
4.54 1.6282222933786117
4.56 1.630280732644339
4.58 1.6323323701985326
4.6 1.6343772674715473
4.62 1.636415485033447
4.64 1.6384470826041135
4.66 1.6404721190633196
4.68 1.6424906524607428
4.7 1.644502740025933
4.72 1.6465084381782256
4.74 1.6485078025365938
4.76 1.6505008879294472
4.78 1.6524877484043696
4.8 1.6544684372377936
4.82 1.6564430069446106
4.84 1.6584115092877179
4.86 1.6603739952875007
4.88 1.6623305152312382
4.9 1.6642811186824515
4.92 1.6662258544901698
4.94 1.6681647707981349
4.96 1.670097915053923
4.98 1.6720253340180027
5.0 1.6739470737727098
5.02 1.675863179731151
5.04 1.677773696646032
5.06 1.6796786686184038
5.08 1.6815781391063387
5.1 1.6834721509335198
5.12 1.685360746297759
5.14 1.6872439667794294
5.16 1.689121853349827
5.18 1.6909944463794377
5.2 1.6928617856461443
5.22 1.694723910343333
5.24 1.6965808590879323
5.26 1.698432669928366
5.28 1.7002793803524265
5.3 1.7021210272950653
5.32 1.7039576471461058
5.34 1.7057892757578723
5.36 1.707615948452739
5.38 1.7094377000305951
5.4 1.711254564776238
5.42 1.7130665764666748
5.44 1.714873768378347
5.46 1.7166761732942828
5.48 1.718473823511156
5.5 1.720266750846276
5.52 1.7220549866444899
5.54 1.7238385617850165
5.56 1.7256175066881876
5.58 1.7273918513221223
5.6 1.7291616252093163
5.62 1.7309268574331569
5.64 1.7326875766443601
5.66 1.7344438110673317
5.68 1.7361955885064444
5.7 1.737942936352254
5.72 1.7396858815876266
5.74 1.7414244507937942
5.76 1.7431586701563409
5.78 1.7448885654711093
5.8 1.7466141621500366
5.82 1.7483354852269153
5.84 1.7500525593630853
5.86 1.75176540885305
5.88 1.753474057630024
5.9 1.7551785292714104
5.92 1.7568788470042036
5.94 1.7585750337103316
5.96 1.7602671119319184
5.98 1.7619551038764873
6.0 1.7636390314220902
6.02 1.7653189161223763
6.04 1.7669947792115865
6.06 1.768666641609488
6.08 1.7703345239262425
6.1 1.7719984464672067
6.12 1.773658429237675
6.14 1.775314491947553
6.16 1.7769666540159696
6.18 1.778614934575832
6.2 1.7802593524783075
6.22 1.7818999262972646
6.24 1.7835366743336287
6.26 1.7851696146197005
6.28 1.786798764923402
6.3 1.7884241427524707
6.32 1.7900457653585908
6.34 1.7916636497414775
6.36 1.7932778126528888
6.38 1.7948882706005982
6.4 1.7964950398523036
6.42 1.7980981364394795
6.44 1.7996975761611844
6.46 1.8012933745878048
6.48 1.8028855470647542
6.5 1.8044741087161167
6.52 1.806059074448237
6.54 1.8076404589532662
6.56 1.8092182767126506
6.58 1.8107925420005744
6.6 1.8123632688873528
6.62 1.8139304712427782
6.64 1.815494162739412
6.66 1.817054356855839
6.68 1.8186110668798678
6.7 1.8201643059116879
6.72 1.8217140868669803
6.74 1.823260422479982
6.76 1.8248033253065135
6.78 1.8263428077269466
6.8 1.827878881949149
6.82 1.8294115600113694
6.84 1.8309408537850886
6.86 1.8324667749778272
6.88 1.8339893351359144
6.9 1.8355085456472082
6.92 1.8370244177437878
6.94 1.838536962504594
6.96 1.8400461908580397
6.98 1.841552113584577
7.0 1.8430547413192289
7.02 1.8445540845540798
7.04 1.846050153640733
7.06 1.847542958792729
7.08 1.8490325100879281
7.1 1.8505188174708591
7.12 1.8520018907550304
7.14 1.8534817396252068
7.16 1.854958373639654
7.18 1.8564318022323472
7.2 1.8579020347151467
7.22 1.8593690802799419
7.24 1.8608329480007622
7.26 1.8622936468358557
7.28 1.8637511856297335
7.3 1.86520557311519
7.32 1.8666568179152856
7.34 1.8681049285453015
7.36 1.869549913414666
7.38 1.8709917808288492
7.4 1.8724305389912295
7.42 1.873866196004931
7.44 1.8752987598746347
7.46 1.876728238508357
7.48 1.8781546397192082
7.5 1.8795779712271126
7.52 1.880998240660518
7.54 1.8824154555580597
7.56 1.8838296233702143
7.58 1.885240751460921
7.6 1.8866488471091776
7.62 1.8880539175106106
7.64 1.889455969779025
7.66 1.8908550109479267
7.68 1.892251047972021
7.7 1.8936440877286862
7.72 1.8950341370194297
7.74 1.8964212025713152
7.76 1.8978052910383663
7.78 1.8991864090029575
7.8 1.9005645629771701
7.82 1.9019397594041363
7.84 1.9033120046593583
7.86 1.9046813050520046
7.88 1.906047666826191
7.9 1.9074110961622335
7.92 1.908771599177888
7.94 1.9101291819295676
7.96 1.9114838504135365
7.98 1.9128356105670927
8.0 1.914184468269724
8.02 1.9155304293442486
8.04 1.9168734995579377
8.06 1.9182136846236184
8.08 1.9195509902007593
8.1 1.9208854218965388
8.12 1.9222169852668949
8.14 1.9235456858175575
8.16 1.9248715290050666
8.18 1.9261945202377706
8.2 1.9275146648768087
8.22 1.9288319682370778
8.24 1.9301464355881857
8.26 1.93145807215538
8.28 1.9327668831204754
8.3 1.934072873622752
8.32 1.935376048759845
8.34 1.9366764135886207
8.36 1.9379739731260357
8.38 1.9392687323499787
8.4 1.940560696200107
8.42 1.9418498695786557
8.44 1.9431362573512478
8.46 1.9444198643476776
8.48 1.9457006953626916
8.5 1.9469787551567477
8.52 1.9482540484567632
8.54 1.9495265799568573
8.56 1.9507963543190694
8.58 1.9520633761740729
8.6 1.9533276501218748
8.62 1.9545891807325027
8.64 1.9558479725466793
8.66 1.9571040300764861
8.68 1.9583573578060158
8.7 1.9596079601920116
8.72 1.9608558416644972
8.74 1.9621010066273956
8.76 1.9633434594591357
8.78 1.9645832045132479
8.8 1.9658202461189505
8.82 1.967054588581726
8.84 1.9682862361838867
8.86 1.969515193185126
8.88 1.9707414638230674
8.9 1.971965052313799
8.92 1.9731859628524002
8.94 1.9744041996134514
8.96 1.975619766751549
8.98 1.9768326684017985
9.0 1.978042908680301
9.02 1.979250491684639
9.04 1.9804554214943375
9.06 1.981657702171335
9.08 1.9828573377604315
9.1 1.9840543322897324
9.12 1.9852486897710881
9.14 1.986440414200521
9.16 1.987629509558645
9.18 1.9888159798110778
9.2 1.9899998289088447
9.22 1.9911810607887783
9.24 1.9923596793739027
9.26 1.993535688573818
9.28 1.9947090922850756
9.3 1.9958798943915415
9.32 1.9970480987647588
9.34 1.9982137092642998
9.36 1.999376729738113
9.38 2.000537164022859
9.4 2.0016950159442435
9.42 2.0028502893173474
9.44 2.004002987946941
9.46 2.0051531156277966
9.48 2.006300676145001
9.5 2.0074456732742467
9.52 2.0085881107821337
9.54 2.0097279924264546
9.56 2.0108653219564747
9.58 2.012000103113212
9.6 2.013132339629707
9.62 2.014262035231284
9.64 2.015389193635816
9.66 2.0165138185539733
9.68 2.017635913689476
9.7 2.018755482739336
9.72 2.0198725293940925
9.74 2.0209870573380475
9.76 2.0220990702494936
9.78 2.0232085718009345
9.8 2.024315565659306
9.82 2.0254200554861845
9.84 2.0265220449380004
9.86 2.0276215376662368
9.88 2.028718537317633
9.9 2.029813047534374
9.92 2.030905071954287
9.94 2.031994614211019
9.96 2.033081677934226
9.98 2.0341662667497395
10.0 2.035248384279755
